SmartLightingSystem.vcd
$date
	Wed Aug 21 00:49:39 2024
$end
$version
	Icarus Verilog
$end
$timescale
	1ps
$end
$scope module tb_SmartLightingSystem $end
$var wire 1 ! light $end
$var reg 1 " clk $end
$var reg 1 # light_level $end
$var reg 1 $ manual_off $end
$var reg 1 % manual_on $end
$var reg 1 & motion $end
$var reg 1 ' reset $end
$scope module uut $end
$var wire 1 " clk $end
$var wire 1 # light_level $end
$var wire 1 $ manual_off $end
$var wire 1 % manual_on $end
$var wire 1 & motion $end
$var wire 1 ' reset $end
$var reg 1 ! light $end
$var reg 3 ( next_state [2:0] $end
$var reg 3 ) state [2:0] $end
$upscope $end
$upscope $end
$enddefinitions $end
#10000
$dumpvars
b0 )
b0 (
0'
0&
0%
0$
0#
0"
0!
$end
#15000
1"
#20000
0"
#25000
1"
#30000
b1 (
0"
1&
1#
#35000
b1 )
1!
1"
#40000
0"
#45000
1"
#50000
0"
#55000
1"
#60000
b100 (
0"
0&
#65000
b0 (
0!
b100 )
1"
#70000
0"
#75000
b0 )
1"
#80000
0"
#85000
1"
#90000
0"
#95000
1"
#100000
b11 (
0"
1%
#105000
1!
b11 )
1"
#110000
0"
#115000
1"
#120000
0"
#125000
1"
#130000
0"
#135000
1"
#140000
0"
#145000
1"
#150000
0"
0%
#155000
1"
#160000
0"
#165000
1"
#170000
0"
#175000
1"
#180000
0"
#185000
1"
#190000
0"
#195000
1"
#200000
0"
#205000
1"
#210000
0"
1&
0#
#215000
1"
#220000
0"
#225000
1"
#230000
0"
#235000
1"
#240000
0"
0&
#245000
1"
#250000
0"
#255000
1"
#260000
0"
#265000
1"
#270000
0"
#275000
1"
#280000
0"
#285000
1"
#290000
0"
#295000
1"
#300000
0"
#305000
1"
#310000
b0 (
0"
1$
#315000
b0 )
0!
1"
#320000
0"
#325000
1"
#330000
0"
#335000
1"
#340000
0"
#345000
1"
#350000
0"
#355000
1"
#360000
0"
#365000
1"
#370000
0"
#375000
1"
#380000
0"
#385000
1"
#390000
0"
0$
#395000
1"
#400000
0"
#405000
1"
#410000
0"
#415000
1"
#420000
0"
#425000
1"
#430000
0"
#435000
1"
#440000
0"
#445000
1"
#450000
0"
#455000
1"
#460000
0"
#465000
1"
#470000
0"
#475000
1"
#480000
b1 (
0"
1&
1#
#485000
1!
b1 )
1"
#490000
0"
#495000
1"
#500000
0"
#505000
1"
#510000
0"
#515000
1"
#520000
b100 (
0"
0&
#525000
b0 (
0!
b100 )
1"
#530000
0"
#535000
b0 )
1"
